{
  "data": [
    {
      "id": "1",
      "type": "movies",
      "attributes": {
        "title": "The Matrix"
      },
      "relationships": {
        "relatedMovies": {
          "data": {
            "id": "2",
            "type": "movies"
          }
        },
        "directors": {
          "data": [
            {
              "id": "1",
              "type": "directors"
            },
            {
              "id": "2",
              "type": "directors"
            }
          ]
        }
      }
    },
    {
      "id": "3",
      "type": "movies",
      "attributes": {
        "title": "Star Wars"
      },
      "relationships": {
        "directors": {
          "data": {
            "id": "3",
            "type": "directors"
          }
        }
      }
    }
  ],
  "included": [
    {
      "id": "1",
      "type": "directors",
      "attributes": {
        "name": "Lana Wachowski"
      }
    },
    {
      "id": "2",
      "type": "directors",
      "attributes": {
        "name": "Lilly Wachowski"
      }
    },
    {
      "id": "3",
      "type": "directors",
      "attributes": {
        "name": "George Lucas"
      }
    }
  ],
  "links": {
    "self": "http://localhost/movies",
    "first": "http://localhost/movies?page[number]=0&page[size]=10",
    "prev": "http://localhost/movies?page[number]=0&page[size]=10",
    "next": "http://localhost/movies?page[number]=2&page[size]=10",
    "last": "http://localhost/movies?page[number]=9&page[size]=10"
  },
  "meta": {
    "page": {
      "number": 1,
      "size": 10,
      "totalPages": 10,
      "totalElements": 100
    }
  }
}
