{
  "jsonapi": {
    "version": "1.1"
  },
  "data": [
    {
      "id": "1",
      "type": "movies",
      "attributes": {
        "title": "The Shawshank Redemption",
        "year": 1994,
        "rating": 9.3
      },
      "relationships": {
        "directors": {
          "data": [
            {
              "id": "2",
              "type": "directors"
            }
          ],
          "links": {
            "self": "http://localhost:8080/api/movies/1/relationships/directors",
            "related": "http://localhost:8080/api/movies/1/directors"
          }
        }
      },
      "links": {
        "self": "http://localhost:8080/api/movies/1"
      }
    }
  ],
  "included": [
    {
      "id": "2",
      "type": "directors",
      "attributes": {
        "name": "Frank Darabont"
      }
    }
  ],
  "links": {
    "self": "http://localhost:8080/api/movies?page%5Bnumber%5D=0&page%5Bsize%5D=1",
    "next": "http://localhost:8080/api/movies?page%5Bnumber%5D=1&page%5Bsize%5D=1",
    "last": "http://localhost:8080/api/movies?page%5Bnumber%5D=249&page%5Bsize%5D=1"
  },
  "meta": {
    "page": {
      "size": 1,
      "totalElements": 250,
      "totalPages": 250,
      "number": 0
    }
  }
}
